{
  "info" : {
    "version" : 1,
    "author" : "xcode"
  },
  "data" : [
    {
      "idiom" : "universal",
      "filename" : "urbanpong-ios-user.p12",
      "universal-type-identifier" : "com.rsa.pkcs-12"
    }
  ]
}